From “Family Tragedy” to “Feminicide”?
…
suggested_terms_surface %>%
  arrange(desc(primary_form)) %>%
  head(30)

# A tibble: 30 × 8
   stem          forms primary_form dict_ok cand_docs cooccur_docs cooccur_ratio
   <chr>         <chr> <chr>        <lgl>       <dbl>        <dbl>         <dbl>
 1 wurdenpro     wurd… wurdenpro    TRUE           18            0        0     
 2 waffendelikt  waff… waffendelik… TRUE           11            0        0     
 3 umgebracht    umge… umgebracht   TRUE         1437          431        0.300 
 4 totung        tötu… tötung       TRUE         2233          498        0.223 
 5 taterinn      täte… täterinnen   TRUE          447           23        0.0515
 6 tocht         toch… tochter      TRUE         6056         2648        0.437 
 7 sexuell       sexu… sexuelle     TRUE         5213          398        0.0763
 8 serientat     seri… serientäter  TRUE           69            5        0.0725
 9 schwagerin    schw… schwägerin   TRUE          112           81        0.723 
10 schwiegermutt schw… schwiegermu… TRUE          238          115        0.483 
# ℹ 20 more rows
# ℹ 1 more variable: junk_suffix <lgl>
…
cat("=== SECOND-PASS: ARTICLES PER YEAR ===\n")

=== SECOND-PASS: ARTICLES PER YEAR ===

print(articles_second_by_year)

# A tibble: 36 × 2
    year     n
   <dbl> <int>
 1  1991    14
 2  1992    11
 3  1993   142
 4  1994   961
 5  1995  1319
 6  1996  1815
 7  1997  1913
 8  1998  2313
 9  1999  3035
10  2000  3535
# ℹ 26 more rows
…
top_contrast <- bind_rows(
  head(arrange(term_wide, desc(log2_ratio)), 15),
  head(arrange(term_wide, log2_ratio), 15)
) %>%
  mutate(direction = ifelse(log2_ratio > 0, "Later period", "Earlier period"))

cat("\n=== SECOND-PASS: KEY TERMS BY PERIOD (LOG2 RATIO) ===\n")

=== SECOND-PASS: KEY TERMS BY PERIOD (LOG2 RATIO) ===

print(top_contrast %>% select(term, log2_ratio, direction))

# A tibble: 30 × 3
   term      log2_ratio direction   
   <chr>          <dbl> <chr>       
 1 selenski        8.85 Later period
 2 srf             7.81 Later period
 3 trump           7.68 Later period
 4 twitter         7.54 Later period
 5 wolodimir       7.53 Later period
 6 biden           7.44 Later period
 7 mariupol        7.09 Later period
 8 charkiw         6.99 Later period
 9 facebook        6.96 Later period
10 trumps          6.90 Later period
# ℹ 20 more rows
…
cat("\n=== SECOND-PASS: CANDIDATE TERMS (ITERATION 2) ===\n")

=== SECOND-PASS: CANDIDATE TERMS (ITERATION 2) ===

print(candidate_terms_secondpass)

# A tibble: 50 × 4
   term             mean_similarity seed_hits window_hits
   <chr>                      <dbl>     <int>       <int>
 1 ehefrau                    0.727         2           7
 2 ehemann                    0.723         3           7
 3 gattin                     0.679         2           6
 4 tocht                      0.664         2           4
 5 gatt                       0.664         3           5
 6 freundin                   0.652         5           7
 7 rechercheprojekt           0.641         2           2
 8 geschied                   0.639         3           5
 9 ehepaar                    0.632         2           5
10 totungsdelikt              0.629         3           3
# ℹ 40 more rows
…
