From “Family Tragedy” to “Feminicide”?
…
suggested_terms_surface %>%
  arrange(desc(primary_form)) %>%
  head(30)

# A tibble: 30 × 8
   stem          forms primary_form dict_ok cand_docs cooccur_docs cooccur_ratio
   <chr>         <chr> <chr>        <lgl>       <dbl>        <dbl>         <dbl>
 1 wurdenpro     wurd… wurdenpro    TRUE           18            0        0     
 2 waffendelikt  waff… waffendelik… TRUE           11            0        0     
 3 umgebracht    umge… umgebracht   TRUE         1437          431        0.300 
 4 totung        tötu… tötung       TRUE         2233          498        0.223 
 5 taterinn      täte… täterinnen   TRUE          447           23        0.0515
 6 tocht         toch… tochter      TRUE         6056         2648        0.437 
 7 sexuell       sexu… sexuelle     TRUE         5213          398        0.0763
 8 serientat     seri… serientäter  TRUE           69            5        0.0725
 9 schwagerin    schw… schwägerin   TRUE          112           81        0.723 
10 schwiegermutt schw… schwiegermu… TRUE          238          115        0.483 
# ℹ 20 more rows
# ℹ 1 more variable: junk_suffix <lgl>
…
